Spatial interaction modelling – Urban analytics and city science
…
For this tutorial we will use travel to work data from the 2011 UK Census. The data is available online, but it requires an academic login. After you log in, download the WU03UK element, save the .csv on your working directory under a /data directory and unzip it. We will use the:

Location of usual residence and place of work by method of travel to work

for

Census Merged local authority districts in England and Wales, Council areas in Scotland, Local government districts in Northern Ireland.

The below code loads the data.

path.data <- paste0(path, "/data/wu03uk_v3/wu03uk_v3.csv")
commuting <- read_csv(path.data)
commuting

# A tibble: 110,162 × 14
   `Area of usual residence` `Area of workplace` All categories: Method of tra…¹
   <chr>                     <chr>                                         <dbl>
 1 95AA                      95AA                                           9465
 2 95AA                      95BB                                            107
 3 95AA                      95CC                                             42
 4 95AA                      95DD                                           1485
 5 95AA                      95EE                                             35
 6 95AA                      95FF                                             18
 7 95AA                      95GG                                           4538
 8 95AA                      95HH                                            139
 9 95AA                      95II                                            282
10 95AA                      95JJ                                            108
# ℹ 110,152 more rows
# ℹ abbreviated name: ¹​`All categories: Method of travel to work`
# ℹ 11 more variables: `Work mainly at or from home` <dbl>,
#   `Underground, metro, light rail, tram` <dbl>, Train <dbl>,
#   `Bus, minibus or coach` <dbl>, Taxi <dbl>,
#   `Motorcycle, scooter or moped` <dbl>, `Driving a car or van` <dbl>,
#   `Passenger in a car or van` <dbl>, Bicycle <dbl>, `On foot` <dbl>, …
…
