Street network analysis practical: networks within cities – Urban analytics and city science
…
A more ‘real’ street network

Let’s increase the complexity now. We can use the roxel data from the sfnetworks package. Roxel is a small town just outside Munster in Germany.

The as_sfnetwork() function converts the spatial object to a network. So, this is the spatial object and this is how it’s geometry looks like.

roxel

Simple feature collection with 851 features and 2 fields
Geometry type: LINESTRING
Dimension:     XY
Bounding box:  xmin: 7.522594 ymin: 51.94151 xmax: 7.546705 ymax: 51.9612
Geodetic CRS:  WGS 84
# A tibble: 851 × 3
   name                  type                                           geometry
 * <chr>                 <fct>                                  <LINESTRING [°]>
 1 Havixbecker Strasse   residential      (7.533722 51.95556, 7.533461 51.95576)
 2 Pienersallee          secondary   (7.532442 51.95422, 7.53236 51.95377, 7.53…
 3 Schulte-Bernd-Strasse residential (7.532709 51.95209, 7.532823 51.95239, 7.5…
 4 <NA>                  path        (7.540063 51.94468, 7.539696 51.94479, 7.5…
 5 Welsingheide          residential       (7.537673 51.9475, 7.537614 51.94562)
 6 <NA>                  footway     (7.543791 51.94733, 7.54369 51.94686, 7.54…
 7 <NA>                  footway           (7.54012 51.94478, 7.539931 51.94514)
 8 <NA>                  path        (7.53822 51.94546, 7.538131 51.94549, 7.53…
 9 <NA>                  track       (7.540063 51.94468, 7.540338 51.94468, 7.5…
10 <NA>                  track       (7.5424 51.94599, 7.54205 51.94629, 7.5419…
# ℹ 841 more rows
…
So, the net object now has a bc column in the node attributes

net = net %>%
  activate("nodes") %>%
  mutate(bc = centrality_betweenness()) %>% 
  print() # print() is equal to just run the object, in this case net.

# A sfnetwork with 701 nodes and 851 edges
#
# CRS:  EPSG:4326 
#
# A directed multigraph with 14 components with spatially explicit edges
#
# A tibble: 701 × 2
             geometry     bc
          <POINT [°]>  <dbl>
1 (7.533722 51.95556) 12936.
2 (7.533461 51.95576) 11824 
3 (7.532442 51.95422) 11926.
4  (7.53209 51.95328)  7259.
5 (7.532709 51.95209)  5668 
6 (7.532869 51.95257)  2374 
# ℹ 695 more rows
#
# A tibble: 851 × 5
   from    to name                  type                                geometry
  <int> <int> <chr>                 <fct>                       <LINESTRING [°]>
1     1     2 Havixbecker Strasse   residential (7.533722 51.95556, 7.533461 51…
2     3     4 Pienersallee          secondary   (7.532442 51.95422, 7.53236 51.…
3     5     6 Schulte-Bernd-Strasse residential (7.532709 51.95209, 7.532823 51…
# ℹ 848 more rows
…
grouped_net = bristol_wrangled %>%
  morph(to_linegraph) %>%
  mutate(group = group_louvain()) %>%
  unmorph()

# A new group column has been added with the community membership
grouped_net

# A sfnetwork with 18043 nodes and 12063 edges
#
# CRS:  EPSG:4326 
#
# An undirected multigraph with 6703 components with spatially explicit edges
#
# A tibble: 18,043 × 2
                     x     bc
           <POINT [°]>  <dbl>
1  (-2.460661 51.5015)     0 
2 (-2.521586 51.51787) 11802.
3 (-2.546315 51.54446)     0 
4 (-2.552245 51.40075)  7013 
5 (-2.516866 51.51245)  5907.
6  (-2.51898 51.51272) 35002.
# ℹ 18,037 more rows
#
# A tibble: 12,063 × 5
   from    to weight                                                     x group
  <int> <int>  <dbl>                                      <LINESTRING [°]> <int>
1     6     7 219.   (-2.51898 51.51272, -2.518938 51.51293, -2.518937 51…    22
2    17    18   5.23              (-2.528247 51.50576, -2.528179 51.50578)    22
3    24    25 428.   (-2.550685 51.50946, -2.550843 51.50949, -2.551013 5…     2
# ℹ 12,060 more rows
…
