Untitled
…
Let’s increase the complexity now. We can use the roxel data from the sfnetworks package. Roxel is a small town just outside Munster in Germany.

The as_sfnetwork() function converts the spatial object to a network. So, this is the spatial object and this is how it’s geometry looks like.

roxel

Simple feature collection with 851 features and 2 fields
Geometry type: LINESTRING
Dimension:     XY
Bounding box:  xmin: 7.522594 ymin: 51.94151 xmax: 7.546705 ymax: 51.9612
Geodetic CRS:  WGS 84
# A tibble: 851 x 3
   name                  type                                           geometry
 * <chr>                 <fct>                                  <LINESTRING [°]>
 1 Havixbecker Strasse   residential      (7.533722 51.95556, 7.533461 51.95576)
 2 Pienersallee          secondary   (7.532442 51.95422, 7.53236 51.95377, 7.53~
 3 Schulte-Bernd-Strasse residential (7.532709 51.95209, 7.532823 51.95239, 7.5~
 4 <NA>                  path        (7.540063 51.94468, 7.539696 51.94479, 7.5~
 5 Welsingheide          residential       (7.537673 51.9475, 7.537614 51.94562)
 6 <NA>                  footway     (7.543791 51.94733, 7.54369 51.94686, 7.54~
 7 <NA>                  footway           (7.54012 51.94478, 7.539931 51.94514)
 8 <NA>                  path        (7.53822 51.94546, 7.538131 51.94549, 7.53~
 9 <NA>                  track       (7.540063 51.94468, 7.540338 51.94468, 7.5~
10 <NA>                  track       (7.5424 51.94599, 7.54205 51.94629, 7.5419~
# ... with 841 more rows
…
