Urban analytics and city science - Spatial interaction modelling
…
For this tutorial we will use travel to work data from the 2011 UK Census. The data is available online, but it requires an academic login. After you log in, download the WU03UK element, save the .csv on your working directory under a /data directory and unzip it. We will use the:

Location of usual residence and place of work by method of travel to work

for

Census Merged local authority districts in England and Wales, Council areas in Scotland, Local government districts in Northern Ireland.

The below code loads the data.

path.data <- paste0(path, "/data/wu03uk_v3/wu03uk_v3.csv")
commuting <- read_csv(path.data)
commuting

# A tibble: 110,162 × 14
   Area of…¹ Area …² All c…³ Work …⁴ Under…⁵ Train Bus, …⁶  Taxi Motor…⁷ Drivi…⁸
   <chr>     <chr>     <dbl>   <dbl>   <dbl> <dbl>   <dbl> <dbl>   <dbl>   <dbl>
 1 95AA      95AA       9465       0       0    12     243   421      58    5376
 2 95AA      95BB        107       0       0     0       1     2       0      68
 3 95AA      95CC         42       0       0     0       1     0       0      29
 4 95AA      95DD       1485       0       0    11      84    13       8    1111
 5 95AA      95EE         35       0       0     0       1     0       0      25
 6 95AA      95FF         18       0       0     0       0     0       0      12
 7 95AA      95GG       4538       0       0   165     434    14      23    3009
 8 95AA      95HH        139       0       0     1       1     0       0     113
 9 95AA      95II        282       0       0     2      15     0       0     219
10 95AA      95JJ        108       0       0    15       2     0       0      78
# … with 110,152 more rows, 4 more variables:
#   `Passenger in a car or van` <dbl>, Bicycle <dbl>, `On foot` <dbl>,
#   `Other method of travel to work` <dbl>, and abbreviated variable names
#   ¹​`Area of usual residence`, ²​`Area of workplace`,
#   ³​`All categories: Method of travel to work`,
#   ⁴​`Work mainly at or from home`, ⁵​`Underground, metro, light rail, tram`,
#   ⁶​`Bus, minibus or coach`, ⁷​`Motorcycle, scooter or moped`, …
…
